/Users/kishan/apiproject/src/test/java/apiprojects/steps/userDetails.java
/Users/kishan/apiproject/src/test/java/apiprojects/steps/RunnerClass.java
/Users/kishan/apiproject/src/test/java/apiprojects/steps/city.java
